{
    "key": "group_5ba0c9aa8fa34",
    "title": "Indhold",
    "fields": [
        {
            "key": "field_5ba0c9b105a23",
            "label": "Google analytics",
            "name": "ga_id",
            "type": "text",
            "instructions": "Indtast dit container ID.",
            "required": 0,
            "conditional_logic": 0,
            "wrapper": {
                "width": "",
                "class": "",
                "id": ""
            },
            "default_value": "",
            "placeholder": "",
            "prepend": "",
            "append": "",
            "maxlength": ""
        }
    ],
    "location": [
        [
            {
                "param": "options_page",
                "operator": "==",
                "value": "global-content"
            }
        ]
    ],
    "menu_order": 0,
    "position": "normal",
    "style": "default",
    "label_placement": "top",
    "instruction_placement": "label",
    "hide_on_screen": "",
    "active": 1,
    "description": "",
    "modified": 1537264700
}